{
    "sessionId": "4722bb879e6f0e07f91403abcf25720e",
    "status": 0,
    "value": [
        {
            "ELEMENT": "0.37236425550876073-1"
        },
        {
            "ELEMENT": "0.37236425550876073-2"
        },
        {
            "ELEMENT": "0.37236425550876073-3"
        },
        {
            "ELEMENT": "0.37236425550876073-4"
        },
        {
            "ELEMENT": "0.37236425550876073-5"
        },
        {
            "ELEMENT": "0.37236425550876073-6"
        },
        {
            "ELEMENT": "0.37236425550876073-7"
        },
        {
            "ELEMENT": "0.37236425550876073-8"
        }
    ]
}