{
    "message": "no such element: Unable to locate element: {\"method\":\"css selector\",\"selector\":\"[name='email'][class='hs-input']\"}",
    "type": "RuntimeError",
    "seleniumStack": {
        "type": "NoSuchElement",
        "message": "An element could not be located on the page using the given search parameters.",
        "orgStatusMessage": "no such element: Unable to locate element: {\"method\":\"css selector\",\"selector\":\"[name='email'][class='hs-input']\"}\n  (Session info: chrome=65.0.3325.162)\n  (Driver info: chromedriver=2.36.540469 (1881fd7f8641508feb5166b7cae561d87723cfa8),platform=Mac OS X 10.12.6 x86_64)"
    }
}