{
    "sessionId": "4722bb879e6f0e07f91403abcf25720e",
    "status": 0,
    "value": [
        {
            "ELEMENT": "0.3768704337326205-1"
        },
        {
            "ELEMENT": "0.3768704337326205-2"
        },
        {
            "ELEMENT": "0.3768704337326205-3"
        },
        {
            "ELEMENT": "0.3768704337326205-4"
        },
        {
            "ELEMENT": "0.3768704337326205-5"
        },
        {
            "ELEMENT": "0.3768704337326205-6"
        },
        {
            "ELEMENT": "0.3768704337326205-7"
        }
    ]
}