{
    "sessionId": "4722bb879e6f0e07f91403abcf25720e",
    "status": 0,
    "value": [
        {
            "ELEMENT": "0.6104014953422969-1"
        },
        {
            "ELEMENT": "0.6104014953422969-2"
        },
        {
            "ELEMENT": "0.6104014953422969-3"
        },
        {
            "ELEMENT": "0.6104014953422969-4"
        },
        {
            "ELEMENT": "0.6104014953422969-5"
        },
        {
            "ELEMENT": "0.6104014953422969-6"
        },
        {
            "ELEMENT": "0.6104014953422969-7"
        },
        {
            "ELEMENT": "0.6104014953422969-8"
        }
    ]
}