{
    "sessionId": "4722bb879e6f0e07f91403abcf25720e",
    "status": 0,
    "value": [
        {
            "ELEMENT": "0.15761624294978427-1"
        },
        {
            "ELEMENT": "0.15761624294978427-2"
        },
        {
            "ELEMENT": "0.15761624294978427-3"
        },
        {
            "ELEMENT": "0.15761624294978427-4"
        },
        {
            "ELEMENT": "0.15761624294978427-5"
        },
        {
            "ELEMENT": "0.15761624294978427-6"
        },
        {
            "ELEMENT": "0.15761624294978427-7"
        },
        {
            "ELEMENT": "0.15761624294978427-8"
        }
    ]
}